KnockoffZoom Tutorial
…
The complete list of genetic variants can be inspected as follows.

# Load list of variants in the dataset
Variants <- lapply(chr.list, function(chr) {
  bim.file <- sprintf("../data/genotypes/example_chr%d.bim", chr)
  bim.colnames <- c("CHR", "SNP", "X0", "BP", "X1", "X2")
  read_delim(bim.file, delim="\t", col_names=bim.colnames, col_types=cols()) %>%
    select(CHR, SNP, BP)
})
Variants <- do.call("rbind", Variants)
# Keep only variants that passed QC
variants.qc <- read_delim(qc.variants, delim=" ", col_names=c("SNP"), col_types=cols())
Variants <- inner_join(Variants, variants.qc, by = "SNP")

## # A tibble: 2,000 x 3
##      CHR SNP             BP
##    <dbl> <chr>        <dbl>
##  1    21 rs7282547 14009151
##  2    21 rs2792379 14027356
##  3    21 rs2792452 14041746
##  4    21 rs1929150 14051249
##  5    21 rs2822068 14056240
##  6    21 rs2260407 14057714
##  7    21 rs2260627 14074393
##  8    21 rs7282370 14074794
##  9    21 rs2260673 14075395
## 10    21 rs2258197 14087640
## #  with 1,990 more rows
…
